Assignment-4/twocomp_tb.vcd
$date
	Thu Mar  3 19:13:22 2022
$end
$version
	Icarus Verilog
$end
$timescale
	1ns
$end
$scope module testbench $end
$var wire 8 ! res [7:0] $end
$var wire 1 " flag $end
$var wire 1 # cout $end
$var reg 8 $ A [7:0] $end
$var reg 8 % B [7:0] $end
$var reg 1 & opcode $end
$scope module uut $end
$var wire 8 ' a [7:0] $end
$var wire 8 ( b [7:0] $end
$var wire 1 ) cin $end
$var wire 1 " flag $end
$var wire 1 & opcode $end
$var wire 8 * res [7:0] $end
$var wire 1 # cout $end
$var wire 8 + carry [7:0] $end
$scope module S0 $end
$var wire 1 , a $end
$var wire 1 - b $end
$var wire 1 ) cin $end
$var wire 1 . cout $end
$var wire 1 & opcode $end
$var wire 1 / sum $end
$upscope $end
$scope module S1 $end
$var wire 1 0 a $end
$var wire 1 1 b $end
$var wire 1 2 cin $end
$var wire 1 3 cout $end
$var wire 1 & opcode $end
$var wire 1 4 sum $end
$upscope $end
$scope module S2 $end
$var wire 1 5 a $end
$var wire 1 6 b $end
$var wire 1 7 cin $end
$var wire 1 8 cout $end
$var wire 1 & opcode $end
$var wire 1 9 sum $end
$upscope $end
$scope module S3 $end
$var wire 1 : a $end
$var wire 1 ; b $end
$var wire 1 < cin $end
$var wire 1 = cout $end
$var wire 1 & opcode $end
$var wire 1 > sum $end
$upscope $end
$scope module S4 $end
$var wire 1 ? a $end
$var wire 1 @ b $end
$var wire 1 A cin $end
$var wire 1 B cout $end
$var wire 1 & opcode $end
$var wire 1 C sum $end
$upscope $end
$scope module S5 $end
$var wire 1 D a $end
$var wire 1 E b $end
$var wire 1 F cin $end
$var wire 1 G cout $end
$var wire 1 & opcode $end
$var wire 1 H sum $end
$upscope $end
$scope module S6 $end
$var wire 1 I a $end
$var wire 1 J b $end
$var wire 1 K cin $end
$var wire 1 L cout $end
$var wire 1 & opcode $end
$var wire 1 M sum $end
$upscope $end
$scope module S7 $end
$var wire 1 N a $end
$var wire 1 O b $end
$var wire 1 P cin $end
$var wire 1 Q cout $end
$var wire 1 & opcode $end
$var wire 1 R sum $end
$upscope $end
$upscope $end
$upscope $end
$enddefinitions $end
#0
$dumpvars
0R
0Q
0P
0O
0N
0M
0L
0K
0J
0I
0H
0G
0F
0E
0D
0C
0B
0A
0@
0?
0>
0=
0<
0;
0:
09
08
07
06
05
04
03
02
01
00
0/
0.
0-
0,
b0 +
b0 *
0)
b0 (
b0 '
0&
b0 %
b0 $
0#
0"
b0 !
$end
#5
14
1>
b1011 !
b1011 *
1/
11
1;
1,
b1010 %
b1010 (
b1 $
b1 '
#10
1C
17
1A
13
1=
04
0>
12
1<
1.
b1111 +
18
0/
b10100 !
b10100 *
19
1-
16
15
b1111 %
b1111 (
b101 $
b101 '
#15
09
07
03
02
0H
0.
0A
0F
1/
1>
0=
1C
b100 +
0B
b11011 !
b11011 *
14
0-
01
0;
1@
10
b10100 %
b10100 (
b111 $
b111 '
#20
1H
1F
1B
17
0C
13
1<
1A
04
18
b11110 +
1=
0/
09
b101000 !
b101000 *
1>
11
1;
0,
05
1:
b11110 %
b11110 (
b1010 $
b1010 '
#25
0>
0<
08
07
0M
03
0F
0K
14
1C
0B
1H
b1000 +
0G
1/
b110111 !
b110111 *
19
01
06
0@
1E
1,
15
b101000 %
b101000 (
b1111 $
b1111 '
#30
1M
1K
1G
0H
0A
1F
0=
b110000 +
1B
0/
14
0>
b1000110 !
b1000110 *
0C
11
0;
1@
0,
00
0:
1?
b110010 %
b110010 (
b10100 $
b10100 '
#35
1C
1A
b111000 +
1=
04
1/
19
b1010101 !
b1010101 *
0>
01
16
1;
1,
05
1:
b111100 %
b111100 (
b11001 $
b11001 '
#40
1F
1<
1B
18
09
17
1A
0"
0R
13
1=
0K
0P
0>
0C
1H
0G
1M
b11110 +
0L
0/
b1100000 !
b1100000 *
04
11
0;
0@
0E
1J
0,
10
b1000110 %
b1000110 (
b11010 $
b11010 '
#45
0A
0=
1>
0<
08
07
b10000 +
03
14
0C
1/
b1101111 !
b1101111 *
19
01
06
1@
1,
15
b1010000 %
b1010000 (
b11111 $
b11111 '
#50
0"
0R
0P
0L
17
1M
13
0F
0K
04
0B
b10 +
0G
0/
19
1>
1C
b1111100 !
b1111100 *
1H
11
1;
0,
05
0:
0?
1D
b1011010 %
b1011010 (
b100010 $
b100010 '
#55
1"
1R
1P
1L
0M
1K
1G
07
1<
1>
0C
0H
03
b1100100 +
18
1/
04
b10001001 !
b10001001 *
09
01
16
0;
0@
1E
1,
00
15
b1100100 %
b1100100 (
b100101 $
b100101 '
#60
1C
0<
1A
14
08
b1101000 +
1=
0/
19
b10010110 !
b10010110 *
0>
11
1;
0,
05
1:
b1101110 %
b1101110 (
b101000 $
b101000 '
#65
1H
07
0A
1F
09
03
0=
b1110000 +
1B
14
1>
b10101010 !
b10101010 *
0C
01
06
1@
10
0:
1?
b1111000 %
b1111000 (
b110010 $
b110010 '
#70
0K
0G
0"
0F
0B
0P
0#
0>
1C
1H
0M
0L
1R
b0 +
0Q
1/
14
b10110111 !
b10110111 *
19
11
0;
0@
0E
0J
1O
1,
00
15
b10000010 %
b10000010 (
b110101 $
b110101 '
#75
04
1>
19
0C
0H
b11001101 !
b11001101 *
1M
01
16
1;
05
0?
0D
1I
b10001100 %
b10001100 (
b1000001 $
b1000001 '
#80
1H
1F
b10000 +
1B
14
0>
0/
b11100110 !
b11100110 *
0C
11
0;
1@
0,
1?
b10010110 %
b10010110 (
b1010000 $
b1010000 '
#85
0#
0Q
0"
1R
0P
0A
0L
0=
1M
0<
0F
0K
1/
1>
08
0B
b0 +
0G
19
1C
b11111111 !
b11111111 *
1H
1-
06
1;
15
0?
1D
b10011011 %
b10011011 (
b1100100 $
b1100100 '
#90
1#
1Q
0"
0R
1P
b11000000 +
1L
0/
04
0C
b101100 !
b101100 *
0M
0-
01
0@
1J
b11001000 %
b11001000 (
